%YAML 1.1
%TAG !u! tag:unity3d.com,2011:
--- !u!13 &1
InputManager:
  m_ObjectHideFlags: 0
  m_Axes:
  - serializedVersion: 3
    m_Name: Player1Horizontal
    descriptiveName: 
    descriptiveNegativeName: 
    negativeButton: a
    positiveButton: d
    altNegativeButton: 
    altPositiveButton: 
    gravity: 1000
    dead: .00100000005
    sensitivity: 1000
    snap: 1
    invert: 0
    type: 0
    axis: 0
    joyNum: 0
  - serializedVersion: 3
    m_Name: Player1Vertical
    descriptiveName: 
    descriptiveNegativeName: 
    negativeButton: s
    positiveButton: w
    altNegativeButton: 
    altPositiveButton: 
    gravity: 1000
    dead: .00100000005
    sensitivity: 1000
    snap: 1
    invert: 0
    type: 0
    axis: 0
    joyNum: 0
  - serializedVersion: 3
    m_Name: Player2Horizontal
    descriptiveName: 
    descriptiveNegativeName: 
    negativeButton: left
    positiveButton: right
    altNegativeButton: 
    altPositiveButton: 
    gravity: 1000
    dead: .00100000005
    sensitivity: 1000
    snap: 1
    invert: 0
    type: 0
    axis: 0
    joyNum: 0
  - serializedVersion: 3
    m_Name: Player2Vertical
    descriptiveName: 
    descriptiveNegativeName: 
    negativeButton: down
    positiveButton: up
    altNegativeButton: 
    altPositiveButton: 
    gravity: 1000
    dead: .00100000005
    sensitivity: 1000
    snap: 1
    invert: 0
    type: 0
    axis: 0
    joyNum: 0
  - serializedVersion: 3
    m_Name: Player3Horizontal
    descriptiveName: 
    descriptiveNegativeName: 
    negativeButton: '[4]'
    positiveButton: '[6]'
    altNegativeButton: 
    altPositiveButton: 
    gravity: 1000
    dead: .00100000005
    sensitivity: 1000
    snap: 1
    invert: 0
    type: 0
    axis: 0
    joyNum: 0
  - serializedVersion: 3
    m_Name: Player3Vertical
    descriptiveName: 
    descriptiveNegativeName: 
    negativeButton: '[2]'
    positiveButton: '[8]'
    altNegativeButton: '[5]'
    altPositiveButton: 
    gravity: 1000
    dead: .00100000005
    sensitivity: 1000
    snap: 1
    invert: 0
    type: 0
    axis: 0
    joyNum: 0
  - serializedVersion: 3
    m_Name: Player1Horizontal
    descriptiveName: 
    descriptiveNegativeName: 
    negativeButton: 
    positiveButton: 
    altNegativeButton: 
    altPositiveButton: 
    gravity: 1
    dead: .00100000005
    sensitivity: 1
    snap: 1
    invert: 0
    type: 2
    axis: 0
    joyNum: 1
  - serializedVersion: 3
    m_Name: Player1Vertical
    descriptiveName: 
    descriptiveNegativeName: 
    negativeButton: 
    positiveButton: 
    altNegativeButton: 
    altPositiveButton: 
    gravity: 1
    dead: .00100000005
    sensitivity: 1
    snap: 1
    invert: 1
    type: 2
    axis: 1
    joyNum: 1
  - serializedVersion: 3
    m_Name: Player2Horizontal
    descriptiveName: 
    descriptiveNegativeName: 
    negativeButton: 
    positiveButton: 
    altNegativeButton: 
    altPositiveButton: 
    gravity: 1
    dead: .00100000005
    sensitivity: 1
    snap: 1
    invert: 0
    type: 2
    axis: 0
    joyNum: 2
  - serializedVersion: 3
    m_Name: Player2Vertical
    descriptiveName: 
    descriptiveNegativeName: 
    negativeButton: 
    positiveButton: 
    altNegativeButton: 
    altPositiveButton: 
    gravity: 1
    dead: .00100000005
    sensitivity: 1
    snap: 1
    invert: 1
    type: 2
    axis: 1
    joyNum: 2
  - serializedVersion: 3
    m_Name: Player3Horizontal
    descriptiveName: 
    descriptiveNegativeName: 
    negativeButton: 
    positiveButton: 
    altNegativeButton: 
    altPositiveButton: 
    gravity: 1
    dead: .00100000005
    sensitivity: 1
    snap: 1
    invert: 0
    type: 2
    axis: 0
    joyNum: 3
  - serializedVersion: 3
    m_Name: Player3Vertical
    descriptiveName: 
    descriptiveNegativeName: 
    negativeButton: 
    positiveButton: 
    altNegativeButton: 
    altPositiveButton: 
    gravity: 1
    dead: .00100000005
    sensitivity: 1
    snap: 1
    invert: 1
    type: 2
    axis: 1
    joyNum: 3
  - serializedVersion: 3
    m_Name: Start
    descriptiveName: 
    descriptiveNegativeName: 
    negativeButton: 
    positiveButton: return
    altNegativeButton: 
    altPositiveButton: 
    gravity: 1000
    dead: .00100000005
    sensitivity: 1000
    snap: 1
    invert: 1
    type: 0
    axis: 1
    joyNum: 3
  - serializedVersion: 3
    m_Name: Player1Cannons
    descriptiveName: 
    descriptiveNegativeName: 
    negativeButton: 
    positiveButton: joystick 1 button 0
    altNegativeButton: 
    altPositiveButton: joystick 1 button 16
    gravity: 1000
    dead: .00100000005
    sensitivity: 1000
    snap: 1
    invert: 1
    type: 0
    axis: 1
    joyNum: 1
  - serializedVersion: 3
    m_Name: Player2Cannons
    descriptiveName: 
    descriptiveNegativeName: 
    negativeButton: 
    positiveButton: joystick 2 button 0
    altNegativeButton: 
    altPositiveButton: joystick 2 button 16
    gravity: 1000
    dead: .00100000005
    sensitivity: 1000
    snap: 1
    invert: 1
    type: 0
    axis: 1
    joyNum: 2
  - serializedVersion: 3
    m_Name: Player3Cannons
    descriptiveName: 
    descriptiveNegativeName: 
    negativeButton: 
    positiveButton: joystick 3 button 0
    altNegativeButton: 
    altPositiveButton: joystick 3 button 16
    gravity: 1000
    dead: .00100000005
    sensitivity: 1000
    snap: 1
    invert: 1
    type: 0
    axis: 1
    joyNum: 3
  - serializedVersion: 3
    m_Name: Player1Start
    descriptiveName: 
    descriptiveNegativeName: 
    negativeButton: 
    positiveButton: joystick 1 button 7
    altNegativeButton: 
    altPositiveButton: joystick 1 button 9
    gravity: 1000
    dead: .00100000005
    sensitivity: 1000
    snap: 1
    invert: 1
    type: 0
    axis: 1
    joyNum: 3
  - serializedVersion: 3
    m_Name: Player2Start
    descriptiveName: 
    descriptiveNegativeName: 
    negativeButton: 
    positiveButton: joystick 2 button 7
    altNegativeButton: 
    altPositiveButton: joystick 2 button 9
    gravity: 1000
    dead: .00100000005
    sensitivity: 1000
    snap: 1
    invert: 1
    type: 0
    axis: 1
    joyNum: 3
  - serializedVersion: 3
    m_Name: Player3Start
    descriptiveName: 
    descriptiveNegativeName: 
    negativeButton: 
    positiveButton: joystick 3 button 7
    altNegativeButton: 
    altPositiveButton: joystick 3 button 9
    gravity: 1000
    dead: .00100000005
    sensitivity: 1000
    snap: 1
    invert: 1
    type: 0
    axis: 1
    joyNum: 3
  - serializedVersion: 3
    m_Name: Player1Cancel
    descriptiveName: 
    descriptiveNegativeName: 
    negativeButton: 
    positiveButton: joystick 1 button 1
    altNegativeButton: 
    altPositiveButton: joystick 1 button 17
    gravity: 1000
    dead: .00100000005
    sensitivity: 1000
    snap: 1
    invert: 1
    type: 0
    axis: 1
    joyNum: 3
  - serializedVersion: 3
    m_Name: Player2Cancel
    descriptiveName: 
    descriptiveNegativeName: 
    negativeButton: 
    positiveButton: joystick 2 button 1
    altNegativeButton: 
    altPositiveButton: joystick 2 button 17
    gravity: 1000
    dead: .00100000005
    sensitivity: 1000
    snap: 1
    invert: 1
    type: 0
    axis: 1
    joyNum: 3
  - serializedVersion: 3
    m_Name: Player3Cancel
    descriptiveName: 
    descriptiveNegativeName: 
    negativeButton: 
    positiveButton: joystick 3 button 1
    altNegativeButton: 
    altPositiveButton: joystick 3 button 17
    gravity: 1000
    dead: .00100000005
    sensitivity: 1000
    snap: 1
    invert: 1
    type: 0
    axis: 1
    joyNum: 3
  - serializedVersion: 3
    m_Name: Cancel
    descriptiveName: 
    descriptiveNegativeName: 
    negativeButton: 
    positiveButton: escape
    altNegativeButton: 
    altPositiveButton: 
    gravity: 1000
    dead: .00100000005
    sensitivity: 1000
    snap: 1
    invert: 1
    type: 0
    axis: 1
    joyNum: 3
  - serializedVersion: 3
    m_Name: Player1Cannons
    descriptiveName: 
    descriptiveNegativeName: 
    negativeButton: 
    positiveButton: f
    altNegativeButton: 
    altPositiveButton: 
    gravity: 1000
    dead: .00100000005
    sensitivity: 1000
    snap: 1
    invert: 1
    type: 0
    axis: 1
    joyNum: 3
  - serializedVersion: 3
    m_Name: Player2Cannons
    descriptiveName: 
    descriptiveNegativeName: 
    negativeButton: 
    positiveButton: .
    altNegativeButton: 
    altPositiveButton: 
    gravity: 1000
    dead: .00100000005
    sensitivity: 1000
    snap: 1
    invert: 1
    type: 0
    axis: 1
    joyNum: 3
  - serializedVersion: 3
    m_Name: Player3Cannons
    descriptiveName: 
    descriptiveNegativeName: 
    negativeButton: 
    positiveButton: '[7]'
    altNegativeButton: 
    altPositiveButton: 
    gravity: 1000
    dead: .00100000005
    sensitivity: 1000
    snap: 1
    invert: 1
    type: 0
    axis: 1
    joyNum: 3
  - serializedVersion: 3
    m_Name: Player1Look
    descriptiveName: 
    descriptiveNegativeName: 
    negativeButton: 
    positiveButton: 
    altNegativeButton: 
    altPositiveButton: 
    gravity: 1
    dead: .00100000005
    sensitivity: 1
    snap: 1
    invert: 0
    type: 2
    axis: 3
    joyNum: 1
  - serializedVersion: 3
    m_Name: Player2Look
    descriptiveName: 
    descriptiveNegativeName: 
    negativeButton: 
    positiveButton: 
    altNegativeButton: 
    altPositiveButton: 
    gravity: 1
    dead: .00100000005
    sensitivity: 1
    snap: 1
    invert: 0
    type: 2
    axis: 3
    joyNum: 2
  - serializedVersion: 3
    m_Name: Player3Look
    descriptiveName: 
    descriptiveNegativeName: 
    negativeButton: 
    positiveButton: 
    altNegativeButton: 
    altPositiveButton: 
    gravity: 1
    dead: .00100000005
    sensitivity: 1
    snap: 1
    invert: 0
    type: 2
    axis: 3
    joyNum: 3
  - serializedVersion: 3
    m_Name: Player1Cannons
    descriptiveName: 
    descriptiveNegativeName: 
    negativeButton: 
    positiveButton: 
    altNegativeButton: 
    altPositiveButton: 
    gravity: 1
    dead: .00100000005
    sensitivity: 1
    snap: 1
    invert: 1
    type: 2
    axis: 2
    joyNum: 1
  - serializedVersion: 3
    m_Name: Player2Cannons
    descriptiveName: 
    descriptiveNegativeName: 
    negativeButton: 
    positiveButton: 
    altNegativeButton: 
    altPositiveButton: 
    gravity: 1
    dead: .00100000005
    sensitivity: 1
    snap: 1
    invert: 0
    type: 2
    axis: 9
    joyNum: 2
  - serializedVersion: 3
    m_Name: Player3Cannons
    descriptiveName: 
    descriptiveNegativeName: 
    negativeButton: 
    positiveButton: 
    altNegativeButton: 
    altPositiveButton: 
    gravity: 1
    dead: .00100000005
    sensitivity: 1
    snap: 1
    invert: 0
    type: 2
    axis: 9
    joyNum: 3
  - serializedVersion: 3
    m_Name: Player1LookVert
    descriptiveName: 
    descriptiveNegativeName: 
    negativeButton: 
    positiveButton: 
    altNegativeButton: 
    altPositiveButton: 
    gravity: 1
    dead: .00100000005
    sensitivity: 1
    snap: 1
    invert: 0
    type: 2
    axis: 4
    joyNum: 1
  - serializedVersion: 3
    m_Name: Player2LookVert
    descriptiveName: 
    descriptiveNegativeName: 
    negativeButton: 
    positiveButton: 
    altNegativeButton: 
    altPositiveButton: 
    gravity: 1
    dead: .00100000005
    sensitivity: 1
    snap: 1
    invert: 0
    type: 2
    axis: 4
    joyNum: 2
  - serializedVersion: 3
    m_Name: Player3LookVert
    descriptiveName: 
    descriptiveNegativeName: 
    negativeButton: 
    positiveButton: 
    altNegativeButton: 
    altPositiveButton: 
    gravity: 1
    dead: .00100000005
    sensitivity: 1
    snap: 1
    invert: 0
    type: 2
    axis: 4
    joyNum: 3
